<?xml version="1.0" encoding="UTF-8"?>
<svg width="42px" height="42px" viewBox="0 0 42 42" version="1.1" xmlns="http://www.w3.org/2000/svg" xmlns:xlink="http://www.w3.org/1999/xlink">
    <!-- Generator: Sketch 58 (84663) - https://sketch.com -->
    <title>check</title>
    <desc>Created with Sketch.</desc>
    <g id="Page-1" stroke="none" stroke-width="1" fill="none" fill-rule="evenodd">
        <g id="JavascriptPasswordValidation" transform="translate(-679.000000, -339.000000)" fill="#23B08D" fill-rule="nonzero" stroke="#23B08D">
            <g id="Group" transform="translate(680.000000, 340.000000)">
                <g id="check">
                    <path d="M20,40 C8.954305,40 -3.55271368e-15,31.045695 -3.55271368e-15,20 C-3.55271368e-15,8.954305 8.954305,-3.55271368e-15 20,-3.55271368e-15 C31.045695,-3.55271368e-15 40,8.954305 40,20 C40,31.045695 31.045695,40 20,40 Z M20,2.66666667 C10.4270643,2.66666667 2.66666667,10.4270643 2.66666667,20 C2.66666667,29.5729357 10.4270643,37.3333333 20,37.3333333 C29.5729357,37.3333333 37.3333333,29.5729357 37.3333333,20 C37.3333333,15.4029142 35.5071481,10.994113 32.2565175,7.74348246 C29.005887,4.4928519 24.5970858,2.66666667 20,2.66666667 Z" id="Shape" stroke-width="1.5"></path>
                    <path d="M16.8933333,28 C16.5237799,27.9988112 16.1712957,27.8442975 15.92,27.5733333 L9.69333333,20.9066667 C9.25187967,20.3622555 9.30730055,19.568995 9.82016632,19.091257 C10.3330321,18.613519 11.1282257,18.6144263 11.64,19.0933333 L16.8933333,24.7066667 L28.36,12.4266667 C28.6737908,12.0396924 29.1771484,11.8599434 29.6650803,11.9606227 C30.1530121,12.061302 30.5441093,12.4256117 30.6790973,12.9051866 C30.8140854,13.3847614 30.6704423,13.8995868 30.3066667,14.24 L17.8666667,27.5733333 C17.615371,27.8442975 17.2628867,27.9988112 16.8933333,28 Z" id="Path"></path>
                </g>
            </g>
        </g>
    </g>
</svg>